R Coding Exercise – Connor’s Data Analysis Portfolio
…
The plot of life expectancy vs. infant mortality shows a slight negative association. The plot of life expectancy vs. log population shows a strong positive association between population size and life expectancy. The data displayed in both graphs, especially in the second graph shows individualized trends in life expectancy. This is likely because data for every year included in the dataset is included in the plot, showing individual trends within countries as well as overall trends in the continent.

#Further data processing

#Find the year with the most data (non-NA values) for infant mortality
most_data_year <- africadata %>% #Make a copy of the africa data
  group_by(year) %>% #Group by year
  summarize(non_na_count = sum(!is.na(infant_mortality))) %>% #Count non-NA values, summarize in new column
  arrange(desc(non_na_count)) #Sort non_na_count in descending order

#Display year with most data
print(most_data_year)

# A tibble: 57 × 2
    year non_na_count
   <int>        <int>
 1  1982           51
 2  1983           51
 3  1984           51
 4  1985           51
 5  1986           51
 6  1987           51
 7  1988           51
 8  1989           51
 9  1990           51
10  1991           51
# ℹ 47 more rows
…
